{
  "nb_res": 256,
  "jobs": [
    {"id": 1, "subtime": 10, "walltime": 120, "res": 4, "profile": "is.B.4"},
    {"id": 2, "subtime": 20, "walltime": 100, "res": 4, "profile": "is.B.4"}
  ],
  "profiles": {
    "is.B.4": {
      "type": "msg_par",
      "cpu": [3.9e10, 3.8e10, 3.8e10, 3.8e10],
      "com": [163195200.0, 54499200.0, 54499200.0, 54499200.0,
              163195200.0, 54499200.0, 54499200.0, 54499200.0,
              163195200.0, 54499200.0, 54499200.0, 54499200.0,
              163195200.0, 54499200.0, 54499200.0, 54499200.0],
      "command": "mpirun is.B.4"
    }
  }
}
